<?xml version="1.0" encoding="UTF-8"?>
<!DOCTYPE svg PUBLIC "-//W3C//DTD SVG 1.1//EN" "http://www.w3.org/Graphics/SVG/1.1/DTD/svg11.dtd">
<!-- Creator: CorelDRAW 2018 (64-Bit) -->
<svg xmlns="http://www.w3.org/2000/svg" xml:space="preserve" width="25mm" height="25mm" version="1.1" style="shape-rendering:geometricPrecision; text-rendering:geometricPrecision; image-rendering:optimizeQuality; fill-rule:evenodd; clip-rule:evenodd"
viewBox="0 0 2500 2500"
 xmlns:xlink="http://www.w3.org/1999/xlink">
 <defs>
  <style type="text/css">
   <![CDATA[
    .fil0 {fill:#FEFEFE}
    .fil2 {fill:#332C2B}
    .fil1 {fill:#2860A2}
   ]]>
  </style>
 </defs>
 <g id="Layer_x0020_1">
  <metadata id="CorelCorpID_0Corel-Layer"/>
  <g id="_1482427006288">
   <path class="fil0" d="M743.5 1680.17c36.93,-27.04 203.14,13.95 256.49,27.81 153.08,39.78 380.95,6.07 579.03,12.36l220.73 9.98c49.25,2.65 51.42,2.99 62.46,24.8 -16.27,13.77 6.31,6.86 -29.18,12.99l-118.4 -6.38c-163.83,-8.8 -274.45,-8.2 -440.09,-0.52 -261.74,12.13 -246.6,-24.3 -477.51,-51.7 -54.56,-6.47 -38.86,2.21 -53.53,-29.34zm776.25 -407.03c28.74,8.87 39.49,33.1 39.73,67.81 0.3,43.77 -10.9,40.99 -50.24,48.92 -58.91,11.87 -103.71,47.6 -163.43,39.23 -28.36,-3.97 -58.71,-17.1 -88.86,-21.51 -31.99,-4.68 -67.41,-0.8 -94.61,-6.19 -63.53,-12.59 -71.77,-110.73 -15.12,-128.27 24.36,37.66 -3.44,18.06 3.4,65.73 3.42,23.89 -4.14,3.41 7.63,17.25 7.62,6.43 158.69,31.49 184.74,35.66 61.94,9.91 111.11,-33.74 180.98,-40.48 -5.24,-40.73 -21.69,-50.28 -4.22,-78.15zm-416.87 -537.07c277.74,-60.34 348.79,359.77 86.22,411.02 -127.9,24.96 -231.52,-61.82 -251.08,-164.2 -24.84,-130.07 62.95,-224.68 164.86,-246.82zm474.17 -8.52c115.38,-16.67 210.6,67.5 225.41,169.05 40.1,274.9 -366.94,311.6 -399.65,62.04 -16.64,-126.96 64.95,-215.3 174.24,-231.09zm-24.37 -139.7c5.89,-30.83 13.62,-32.49 82.28,-54.25 36.16,-11.45 80.15,-17.54 122.16,-14.07 56.19,4.65 154.72,38.17 158.39,103.1 -44.34,2.69 -46.63,-22.47 -82.06,-43.65 -121.28,-72.48 -237.37,32.22 -280.77,8.87zm-818.16 14.75c1.78,-50.11 48.07,-68.83 88.92,-93.01 155.06,-91.73 417.42,-54.28 423.16,17.29 -31.85,13.33 -84.71,-20.13 -127.56,-29.27 -232.55,-49.55 -322.23,102.56 -384.52,104.99zm-666.81 653.47c0,647.95 535.02,1174.47 1181.03,1175.23 437.31,0.5 765.78,-220.51 968.29,-504.24 248.09,-347.6 278.64,-779.92 107.13,-1170 -77.72,-176.76 -237.22,-364.17 -392.44,-470.91 -220.98,-151.96 -426.59,-216.46 -708.3,-216.44 -630.33,0.06 -1155.71,541.27 -1155.71,1186.36z"/>
   <path class="fil1" d="M67.71 1256.07c0,-645.09 525.38,-1186.3 1155.71,-1186.36 281.71,-0.02 487.32,64.48 708.3,216.44 155.22,106.74 314.72,294.15 392.44,470.91 171.51,390.08 140.96,822.4 -107.13,1170 -202.51,283.73 -530.98,504.74 -968.29,504.24 -646.01,-0.76 -1181.03,-527.28 -1181.03,-1175.23zm-33.6 67.67c39.46,647.91 591.34,1180.39 1291.24,1140.76 644.38,-36.49 1179.38,-589.46 1140.94,-1284 -35.93,-649.1 -594.18,-1188.37 -1293.73,-1144.58 -645.55,40.4 -1180.93,590.22 -1138.45,1287.82z"/>
   <path class="fil0" d="M1111.35 871.9c99.63,-35.73 147.77,113.45 57.95,145.03 -99.42,34.95 -153.08,-110.91 -57.95,-145.03zm8.26 -102.27c-232.64,37.92 -171.79,376.39 52.61,343.59 222.69,-32.56 174.46,-380.59 -52.61,-343.59z"/>
   <path class="fil0" d="M1587.58 873.48c94.21,-48.06 156.35,101.52 69.93,139.64 -92.36,40.75 -168.73,-89.23 -69.93,-139.64zm-150.53 61.17c-0.26,209.62 333.54,207.95 331.23,-8.36 -2.3,-214.12 -330.94,-225.13 -331.23,8.36z"/>
   <path class="fil1" d="M1119.61 769.63c227.07,-37 275.3,311.03 52.61,343.59 -224.4,32.8 -285.25,-305.67 -52.61,-343.59zm-16.73 -33.56c-101.91,22.14 -189.7,116.75 -164.86,246.82 19.56,102.38 123.18,189.16 251.08,164.2 262.57,-51.25 191.52,-471.36 -86.22,-411.02z"/>
   <path class="fil1" d="M1437.05 934.65c0.29,-233.49 328.93,-222.48 331.23,-8.36 2.31,216.31 -331.49,217.98 -331.23,8.36zm140 -207.1c-109.29,15.79 -190.88,104.13 -174.24,231.09 32.71,249.56 439.75,212.86 399.65,-62.04 -14.81,-101.55 -110.03,-185.72 -225.41,-169.05z"/>
   <path class="fil1" d="M999.99 1707.98c-53.35,-13.86 -219.56,-54.85 -256.49,-27.81 14.67,31.55 -1.03,22.87 53.53,29.34 230.91,27.4 215.77,63.83 477.51,51.7 165.64,-7.68 276.26,-8.28 440.09,0.52l118.4 6.38c35.49,-6.13 12.91,0.78 29.18,-12.99 -11.04,-21.81 -13.21,-22.15 -62.46,-24.8l-220.73 -9.98c-198.08,-6.29 -425.95,27.42 -579.03,-12.36z"/>
   <path class="fil1" d="M1519.75 1273.14c-17.47,27.87 -1.02,37.42 4.22,78.15 -69.87,6.74 -119.04,50.39 -180.98,40.48 -26.05,-4.17 -177.12,-29.23 -184.74,-35.66 -11.77,-13.84 -4.21,6.64 -7.63,-17.25 -6.84,-47.67 20.96,-28.07 -3.4,-65.73 -56.65,17.54 -48.41,115.68 15.12,128.27 27.2,5.39 62.62,1.51 94.61,6.19 30.15,4.41 60.5,17.54 88.86,21.51 59.72,8.37 104.52,-27.36 163.43,-39.23 39.34,-7.93 50.54,-5.15 50.24,-48.92 -0.24,-34.71 -10.99,-58.94 -39.73,-67.81z"/>
   <path class="fil1" d="M734.52 602.6c62.29,-2.43 151.97,-154.54 384.52,-104.99 42.85,9.14 95.71,42.6 127.56,29.27 -5.74,-71.57 -268.1,-109.02 -423.16,-17.29 -40.85,24.18 -87.14,42.9 -88.92,93.01z"/>
   <path class="fil1" d="M1643.41 965.14c-85.3,30.8 -60.78,-85.23 4.15,-44.1l-4.15 44.1zm-55.83 -91.66c-98.8,50.41 -22.43,180.39 69.93,139.64 86.42,-38.12 24.28,-187.7 -69.93,-139.64z"/>
   <path class="fil1" d="M1118.32 922.69c79.61,-37.98 64.29,87 -1.7,42.53 -10.04,-30.11 -10.64,-15.33 1.7,-42.53zm-6.97 -50.79c-95.13,34.12 -41.47,179.98 57.95,145.03 89.82,-31.58 41.68,-180.76 -57.95,-145.03z"/>
   <path class="fil1" d="M1552.68 587.85c43.4,23.35 159.49,-81.35 280.77,-8.87 35.43,21.18 37.72,46.34 82.06,43.65 -3.67,-64.93 -102.2,-98.45 -158.39,-103.1 -42.01,-3.47 -86,2.62 -122.16,14.07 -68.66,21.76 -76.39,23.42 -82.28,54.25z"/>
   <path class="fil2" d="M1118.32 922.69c-12.34,27.2 -11.74,12.42 -1.7,42.53 65.99,44.47 81.31,-80.51 1.7,-42.53z"/>
   <path class="fil2" d="M1643.41 965.14l4.15 -44.1c-64.93,-41.13 -89.45,74.9 -4.15,44.1z"/>
  </g>
 </g>
</svg>
